menu_report
…
Data

Below is a plain view of the raw data in menu.csv:

## 
## -- Column specification --------------------------------------------------------
## cols(
##   .default = col_double(),
##   Category = col_character(),
##   Item = col_character(),
##   `Serving Size` = col_character()
## )
## i Use `spec()` for the full column specifications.

## # A tibble: 260 x 24
##    categ~1 item  servi~2 calor~3 calor~4 total~5 total~6 satur~7 satur~8 trans~9
##    <chr>   <chr> <chr>     <dbl>   <dbl>   <dbl>   <dbl>   <dbl>   <dbl>   <dbl>
##  1 Breakf~ Egg ~ 4.8 oz~     300     120      13      20       5      25       0
##  2 Breakf~ Egg ~ 4.8 oz~     250      70       8      12       3      15       0
##  3 Breakf~ Saus~ 3.9 oz~     370     200      23      35       8      42       0
##  4 Breakf~ Saus~ 5.7 oz~     450     250      28      43      10      52       0
##  5 Breakf~ Saus~ 5.7 oz~     400     210      23      35       8      42       0
##  6 Breakf~ Stea~ 6.5 oz~     430     210      23      36       9      46       1
##  7 Breakf~ Baco~ 5.3 oz~     460     230      26      40      13      65       0
##  8 Breakf~ Baco~ 5.8 oz~     520     270      30      47      14      68       0
##  9 Breakf~ Baco~ 5.4 oz~     410     180      20      32      11      56       0
## 10 Breakf~ Baco~ 5.9 oz~     470     220      25      38      12      59       0
## # ... with 250 more rows, 14 more variables: cholesterol <dbl>,
## #   cholesterol_percent_daily_value <dbl>, sodium <dbl>,
## #   sodium_percent_daily_value <dbl>, carbohydrates <dbl>,
## #   carbohydrates_percent_daily_value <dbl>, dietary_fiber <dbl>,
## #   dietary_fiber_percent_daily_value <dbl>, sugars <dbl>, protein <dbl>,
## #   vitamin_a_percent_daily_value <dbl>, vitamin_c_percent_daily_value <dbl>,
## #   calcium_percent_daily_value <dbl>, iron_percent_daily_value <dbl>, and ...
…
